src/build/tb_fsm_teclado.vcd
$date
	Sat Jun 06 20:52:17 2026
$end
$version
	Icarus Verilog
$end
$timescale
	1ps
$end
$scope module tb_fsm_teclado $end
$var wire 1 ! valid $end
$var wire 1 " sel_display $end
$var wire 1 # capturando_B $end
$var wire 1 $ capturando_A $end
$var wire 1 % borrar $end
$var reg 1 & clk $end
$var reg 1 ' done $end
$var reg 1 ( rst_n $end
$var reg 4 ) tecla [3:0] $end
$var reg 1 * tecla_valida $end
$scope module dut $end
$var wire 1 % borrar $end
$var wire 1 & clk $end
$var wire 1 ' done $end
$var wire 1 + key_clr $end
$var wire 1 ( rst_n $end
$var wire 4 , tecla [3:0] $end
$var wire 1 * tecla_valida $end
$var wire 1 ! valid $end
$var wire 1 # capturando_B $end
$var wire 1 $ capturando_A $end
$var parameter 4 - KEY_CLR $end
$var parameter 4 . KEY_EXEC $end
$var parameter 4 / KEY_SEP $end
$var parameter 4 0 KEY_STAR $end
$var parameter 4 1 KEY_TOG $end
$var reg 2 2 next_state [1:0] $end
$var reg 1 " sel_display $end
$var reg 2 3 state [1:0] $end
$upscope $end
$upscope $end
$enddefinitions $end
$comment Show the parameter values. $end
$dumpall
b1101 1
b1110 0
b1010 /
b1011 .
b1100 -
$end
#0
$dumpvars
b0 3
b0 2
b0 ,
0+
0*
b0 )
0(
0'
0&
0%
1$
0#
0"
0!
$end
#18518
1&
#20000
1(
#37036
0&
#55554
b1 2
1*
b1010 )
b1010 ,
1&
#74072
0&
#92590
0$
1#
b1 3
b1 2
0*
1&
#111108
0&
#129626
1!
b10 2
1*
b1011 )
b1011 ,
1&
#148144
0&
#166662
0#
b10 3
0!
b10 2
0*
1&
#185180
0&
#196662
b11 2
1'
#203698
b11 3
b11 2
0'
1&
#222216
0&
#240734
1"
1*
b1101 )
b1101 ,
1&
#259252
0&
#277770
0*
1&
#296288
0&
#314806
b0 2
1%
1+
1*
b1100 )
b1100 ,
1&
#333324
0&
#351842
1$
b0 3
0%
0+
b0 2
0*
1&
