src/build/tb_top.vcd
$date
	Tue Jun 09 21:52:05 2026
$end
$version
	Icarus Verilog
$end
$timescale
	1ps
$end
$scope module tb_top $end
$var wire 7 ! seg [6:0] $end
$var wire 4 " cols [3:0] $end
$var wire 2 # an [1:0] $end
$var reg 1 $ clk $end
$var reg 1 % reset $end
$var reg 4 & rows [3:0] $end
$var integer 32 ' err1 [31:0] $end
$var integer 32 ( err2 [31:0] $end
$scope function kexpected $end
$upscope $end
$scope function kname $end
$upscope $end
$scope module dut $end
$var wire 1 ) blank_tens $end
$var wire 1 $ clk $end
$var wire 2 * col_detect [1:0] $end
$var wire 4 + cols [3:0] $end
$var wire 1 , display_blank $end
$var wire 1 % reset $end
$var wire 1 - reset_i $end
$var wire 4 . rows [3:0] $end
$var wire 1 / rst_n $end
$var wire 1 0 tecla_valida $end
$var wire 1 1 valid_div $end
$var wire 1 2 sel_display $end
$var wire 7 3 seg_digit [6:0] $end
$var wire 7 4 seg [6:0] $end
$var wire 1 5 scan_enable $end
$var wire 4 6 rows_sync [3:0] $end
$var wire 4 7 rows_clean [3:0] $end
$var wire 2 8 row_detect [1:0] $end
$var wire 4 9 residuo [3:0] $end
$var wire 4 : keycode [3:0] $end
$var wire 1 ; key_valid_raw $end
$var wire 1 < done $end
$var wire 10 = divisor_raw [9:0] $end
$var wire 4 > divisor [3:0] $end
$var wire 10 ? dividendo_raw [9:0] $end
$var wire 6 @ dividendo [5:0] $end
$var wire 1 A display_units $end
$var wire 1 B display_enable $end
$var wire 4 C digit [3:0] $end
$var wire 4 D cols_raw [3:0] $end
$var wire 2 E col_detect_raw [1:0] $end
$var wire 6 F cociente [5:0] $end
$var wire 1 G capturando_B $end
$var wire 1 H capturando_A $end
$var wire 1 I borrar $end
$var wire 8 J bcd_sel [7:0] $end
$var wire 8 K bcd_residuo [7:0] $end
$var wire 8 L bcd_divisor [7:0] $end
$var wire 8 M bcd_dividendo [7:0] $end
$var wire 8 N bcd_cociente [7:0] $end
$var wire 2 O an [1:0] $end
$var wire 2 P active_display [1:0] $end
$var reg 6 Q cociente_r [5:0] $end
$var reg 1 R key_active $end
$var reg 3 S no_key_scans [2:0] $end
$var reg 4 T residuo_r [3:0] $end
$scope begin gen_filas[0] $end
$var parameter 2 U i $end
$scope module u_deb $end
$var wire 1 $ clk $end
$var wire 1 V noisy_in $end
$var wire 1 - reset $end
$var parameter 32 W LIMIT $end
$var reg 1 X clean_out $end
$var reg 11 Y counter [10:0] $end
$var reg 1 Z previous $end
$upscope $end
$scope module u_sync $end
$var wire 1 [ async_in $end
$var wire 1 $ clk $end
$var wire 1 \ sync_out $end
$var reg 1 ] ff1 $end
$var reg 1 \ ff2 $end
$upscope $end
$upscope $end
$scope begin gen_filas[1] $end
$var parameter 2 ^ i $end
$scope module u_deb $end
$var wire 1 $ clk $end
$var wire 1 _ noisy_in $end
$var wire 1 - reset $end
$var parameter 32 ` LIMIT $end
$var reg 1 a clean_out $end
$var reg 11 b counter [10:0] $end
$var reg 1 c previous $end
$upscope $end
$scope module u_sync $end
$var wire 1 d async_in $end
$var wire 1 $ clk $end
$var wire 1 e sync_out $end
$var reg 1 f ff1 $end
$var reg 1 e ff2 $end
$upscope $end
$upscope $end
$scope begin gen_filas[2] $end
$var parameter 3 g i $end
$scope module u_deb $end
$var wire 1 $ clk $end
$var wire 1 h noisy_in $end
$var wire 1 - reset $end
$var parameter 32 i LIMIT $end
$var reg 1 j clean_out $end
$var reg 11 k counter [10:0] $end
$var reg 1 l previous $end
$upscope $end
$scope module u_sync $end
$var wire 1 m async_in $end
$var wire 1 $ clk $end
$var wire 1 n sync_out $end
$var reg 1 o ff1 $end
$var reg 1 n ff2 $end
$upscope $end
$upscope $end
$scope begin gen_filas[3] $end
$var parameter 3 p i $end
$scope module u_deb $end
$var wire 1 $ clk $end
$var wire 1 q noisy_in $end
$var wire 1 - reset $end
$var parameter 32 r LIMIT $end
$var reg 1 s clean_out $end
$var reg 11 t counter [10:0] $end
$var reg 1 u previous $end
$upscope $end
$scope module u_sync $end
$var wire 1 v async_in $end
$var wire 1 $ clk $end
$var wire 1 w sync_out $end
$var reg 1 x ff1 $end
$var reg 1 w ff2 $end
$upscope $end
$upscope $end
$scope module u_bcd_a $end
$var wire 6 y bin_in [5:0] $end
$var parameter 32 z BIN_W $end
$var parameter 32 { N_DIGITS $end
$var parameter 32 | TOTAL_W $end
$var reg 8 } bcd_out [7:0] $end
$var reg 14 ~ scratch [13:0] $end
$scope begin $ivl_for_loop4 $end
$var integer 32 !" i [31:0] $end
$scope begin $ivl_for_loop5 $end
$var integer 32 "" j [31:0] $end
$upscope $end
$upscope $end
$upscope $end
$scope module u_bcd_b $end
$var wire 4 #" bin_in [3:0] $end
$var parameter 32 $" BIN_W $end
$var parameter 32 %" N_DIGITS $end
$var parameter 32 &" TOTAL_W $end
$var reg 8 '" bcd_out [7:0] $end
$var reg 12 (" scratch [11:0] $end
$scope begin $ivl_for_loop4 $end
$var integer 32 )" i [31:0] $end
$scope begin $ivl_for_loop5 $end
$var integer 32 *" j [31:0] $end
$upscope $end
$upscope $end
$upscope $end
$scope module u_bcd_q $end
$var wire 6 +" bin_in [5:0] $end
$var parameter 32 ," BIN_W $end
$var parameter 32 -" N_DIGITS $end
$var parameter 32 ." TOTAL_W $end
$var reg 8 /" bcd_out [7:0] $end
$var reg 14 0" scratch [13:0] $end
$scope begin $ivl_for_loop4 $end
$var integer 32 1" i [31:0] $end
$scope begin $ivl_for_loop5 $end
$var integer 32 2" j [31:0] $end
$upscope $end
$upscope $end
$upscope $end
$scope module u_bcd_r $end
$var wire 4 3" bin_in [3:0] $end
$var parameter 32 4" BIN_W $end
$var parameter 32 5" N_DIGITS $end
$var parameter 32 6" TOTAL_W $end
$var reg 8 7" bcd_out [7:0] $end
$var reg 12 8" scratch [11:0] $end
$scope begin $ivl_for_loop4 $end
$var integer 32 9" i [31:0] $end
$scope begin $ivl_for_loop5 $end
$var integer 32 :" j [31:0] $end
$upscope $end
$upscope $end
$upscope $end
$scope module u_capA $end
$var wire 1 $ clk $end
$var wire 1 / rst_n $end
$var wire 1 0 tecla_valida $end
$var wire 4 ;" tecla [3:0] $end
$var wire 10 <" numero_bcd [9:0] $end
$var wire 1 H habilitado $end
$var wire 1 I borrar $end
$var parameter 32 =" MAX_DIGITOS $end
$var reg 2 >" idx [1:0] $end
$var reg 1 ?" listo $end
$upscope $end
$scope module u_capB $end
$var wire 1 $ clk $end
$var wire 1 / rst_n $end
$var wire 1 0 tecla_valida $end
$var wire 4 @" tecla [3:0] $end
$var wire 10 A" numero_bcd [9:0] $end
$var wire 1 G habilitado $end
$var wire 1 I borrar $end
$var parameter 32 B" MAX_DIGITOS $end
$var reg 2 C" idx [1:0] $end
$var reg 1 D" listo $end
$upscope $end
$scope module u_decoder $end
$var wire 2 E" key_col [1:0] $end
$var wire 2 F" key_row [1:0] $end
$var reg 4 G" keycode [3:0] $end
$upscope $end
$scope module u_disp_ce $end
$var wire 1 $ clk $end
$var wire 1 - reset $end
$var parameter 32 H" MAX_COUNT $end
$var reg 15 I" counter [14:0] $end
$var reg 1 B enable $end
$upscope $end
$scope module u_div $end
$var wire 6 J" A [5:0] $end
$var wire 4 K" B [3:0] $end
$var wire 6 L" Q [5:0] $end
$var wire 4 M" R [3:0] $end
$var wire 1 $ clk $end
$var wire 1 < done $end
$var wire 1 / rst_n $end
$var wire 1 1 valid $end
$var parameter 32 N" NA $end
$var parameter 32 O" NB $end
$scope begin gen_fila[0] $end
$var wire 6 P" q_prev [5:0] $end
$var wire 4 Q" r_prev [3:0] $end
$var wire 6 R" sub [5:0] $end
$var wire 5 S" r_ext [4:0] $end
$var wire 1 T" q_bit $end
$var parameter 2 U" k $end
$scope begin g_entrada_primera $end
$upscope $end
$upscope $end
$scope begin gen_fila[1] $end
$var wire 4 V" r_prev [3:0] $end
$var wire 6 W" sub [5:0] $end
$var wire 5 X" r_ext [4:0] $end
$var wire 6 Y" q_prev [5:0] $end
$var wire 1 Z" q_bit $end
$var parameter 2 [" k $end
$scope begin g_entrada_resto $end
$upscope $end
$upscope $end
$scope begin gen_fila[2] $end
$var wire 4 \" r_prev [3:0] $end
$var wire 6 ]" sub [5:0] $end
$var wire 5 ^" r_ext [4:0] $end
$var wire 6 _" q_prev [5:0] $end
$var wire 1 `" q_bit $end
$var parameter 3 a" k $end
$scope begin g_entrada_resto $end
$upscope $end
$upscope $end
$scope begin gen_fila[3] $end
$var wire 4 b" r_prev [3:0] $end
$var wire 6 c" sub [5:0] $end
$var wire 5 d" r_ext [4:0] $end
$var wire 6 e" q_prev [5:0] $end
$var wire 1 f" q_bit $end
$var parameter 3 g" k $end
$scope begin g_entrada_resto $end
$upscope $end
$upscope $end
$scope begin gen_fila[4] $end
$var wire 4 h" r_prev [3:0] $end
$var wire 6 i" sub [5:0] $end
$var wire 5 j" r_ext [4:0] $end
$var wire 6 k" q_prev [5:0] $end
$var wire 1 l" q_bit $end
$var parameter 4 m" k $end
$scope begin g_entrada_resto $end
$upscope $end
$upscope $end
$scope begin gen_fila[5] $end
$var wire 4 n" r_prev [3:0] $end
$var wire 6 o" sub [5:0] $end
$var wire 5 p" r_ext [4:0] $end
$var wire 6 q" q_prev [5:0] $end
$var wire 1 r" q_bit $end
$var parameter 4 s" k $end
$scope begin g_entrada_resto $end
$upscope $end
$upscope $end
$upscope $end
$scope module u_fsm $end
$var wire 1 I borrar $end
$var wire 1 $ clk $end
$var wire 1 < done $end
$var wire 1 t" key_clr $end
$var wire 1 / rst_n $end
$var wire 4 u" tecla [3:0] $end
$var wire 1 0 tecla_valida $end
$var wire 1 1 valid $end
$var wire 1 G capturando_B $end
$var wire 1 H capturando_A $end
$var parameter 4 v" KEY_CLR $end
$var parameter 4 w" KEY_EXEC $end
$var parameter 4 x" KEY_SEP $end
$var parameter 4 y" KEY_STAR $end
$var parameter 4 z" KEY_TOG $end
$var reg 2 {" next_state [1:0] $end
$var reg 1 2 sel_display $end
$var reg 2 |" state [1:0] $end
$upscope $end
$scope module u_keypad $end
$var wire 1 $ clk $end
$var wire 1 - reset $end
$var wire 4 }" rows [3:0] $end
$var wire 1 5 scan_enable $end
$var reg 2 ~" col_detect [1:0] $end
$var reg 4 !# cols [3:0] $end
$var reg 2 "# current_col [1:0] $end
$var reg 1 ; key_valid $end
$var reg 2 ## row_detect [1:0] $end
$upscope $end
$scope module u_mux $end
$var wire 1 $ clk $end
$var wire 1 B display_enable $end
$var wire 1 - reset $end
$var reg 2 $# active_display [1:0] $end
$upscope $end
$scope module u_scan_ce $end
$var wire 1 $ clk $end
$var wire 1 - reset $end
$var parameter 32 %# MAX_COUNT $end
$var reg 16 &# counter [15:0] $end
$var reg 1 5 enable $end
$upscope $end
$scope module u_seg $end
$var wire 4 '# number [3:0] $end
$var reg 7 (# seg [6:0] $end
$upscope $end
$upscope $end
$scope begin $ivl_for_loop0 $end
$var integer 32 )# r [31:0] $end
$scope begin $ivl_for_loop1 $end
$var integer 32 *# c [31:0] $end
$scope begin $unm_blk_3 $end
$var reg 4 +# exp [3:0] $end
$var reg 4 ,# got [3:0] $end
$upscope $end
$upscope $end
$upscope $end
$scope begin $ivl_for_loop2 $end
$var integer 32 -# r [31:0] $end
$scope begin $ivl_for_loop3 $end
$var integer 32 .# c [31:0] $end
$scope begin $unm_blk_5 $end
$var reg 4 /# exp [3:0] $end
$var reg 4 0# got [3:0] $end
$upscope $end
$upscope $end
$upscope $end
$upscope $end
$enddefinitions $end
$comment Show the parameter values. $end
$dumpall
b110100101111000 %#
b1101 z"
b1110 y"
b1010 x"
b1011 w"
b1100 v"
b101 s"
b100 m"
b11 g"
b10 a"
b1 ["
b0 U"
b100 O"
b110 N"
b11010010111100 H"
b10 B"
b10 ="
b1100 6"
b10 5"
b100 4"
b1110 ."
b10 -"
b110 ,"
b1100 &"
b10 %"
b100 $"
b1110 |
b10 {
b110 z
b1111101000 r
b11 p
b1111101000 i
b10 g
b1111101000 `
b1 ^
b1111101000 W
b0 U
$end
#0
$dumpvars
bx 0#
bx /#
b0 .#
b0 -#
bx ,#
bx +#
b0 *#
b0 )#
b1000000 (#
b0 '#
b0 &#
b0 $#
bx ##
b0 "#
b1110 !#
bx ~"
b0 }"
b0 |"
b0 {"
b1111 u"
0t"
1r"
b0 q"
b0 p"
b100000 o"
b0 n"
1l"
b0 k"
b0 j"
b100000 i"
b0 h"
1f"
b0 e"
b0 d"
b100000 c"
b0 b"
1`"
b0 _"
b0 ^"
b100000 ]"
b0 \"
1Z"
b0 Y"
b0 X"
b100000 W"
b0 V"
1T"
b0 S"
b100000 R"
b0 Q"
b0 P"
b0 M"
b0 L"
b0 K"
b0 J"
b0 I"
b1111 G"
bx F"
bx E"
0D"
b0 C"
b0 A"
b1111 @"
0?"
b0 >"
b0 <"
b1111 ;"
b10 :"
b100 9"
b0 8"
b0 7"
b0 3"
b10 2"
b110 1"
b0 0"
b0 /"
b0 +"
b10 *"
b100 )"
b0 ("
b0 '"
b0 #"
b10 ""
b110 !"
b0 ~
b0 }
b0 y
xx
xw
0v
0u
b0 t
0s
xq
xo
xn
0m
0l
b0 k
0j
xh
xf
xe
0d
0c
b0 b
0a
x_
x]
x\
0[
0Z
b0 Y
0X
xV
b0 T
b0 S
0R
b0 Q
b0 P
b11 O
b0 N
b0 M
b0 L
b0 K
b0 J
0I
1H
0G
b0 F
bx E
b1110 D
b0 C
0B
0A
b0 @
b0 ?
b0 >
b0 =
0<
0;
b1111 :
b0 9
bx 8
b0 7
bx 6
05
b1111111 4
b1000000 3
02
01
00
0/
b0 .
1-
1,
b1 +
bx *
1)
b0 (
b0 '
b0 &
0%
0$
b11 #
b1 "
b1111111 !
$end
#18518
0]
0f
0o
0x
1$
#37036
0$
#55554
0q
0h
0_
0V
0w
0n
0e
b0 6
0\
1$
#74072
0$
#92590
1$
#111108
0$
#129626
1$
#148144
0$
#166662
1$
#185180
0$
#203698
1$
#222216
0$
#240734
1$
#259252
0$
#277770
1$
#296288
0$
#314806
1$
#333324
0$
#351842
1$
#370360
0$
#388878
1$
#400000
0-
1/
1%
#407396
0$
#425914
b1 Y
b1 b
b1 k
b1 t
b1 &#
b1 I"
b1 Y"
b1 _"
b1 e"
b1 k"
b1 q"
b1 F
b1 L"
1$
#444432
0$
#462950
b10 I"
b10 &#
b10 t
b10 k
b10 b
b10 Y
b11 F
b11 L"
b11 q"
b11 k"
b11 e"
b11 _"
1$
#481468
0$
#499986
b11 Y
b11 b
b11 k
b11 t
b11 &#
b11 I"
b111 e"
b111 k"
b111 q"
b111 F
b111 L"
1$
#518504
0$
#537022
b100 I"
b100 &#
b100 t
b100 k
b100 b
b100 Y
b1111 F
b1111 L"
b1111 q"
b1111 k"
1$
#555540
0$
#574058
b101 Y
b101 b
b101 k
b101 t
b101 &#
b101 I"
b11111 q"
b11111 F
b11111 L"
1$
#592576
0$
#611094
b110 I"
b110 &#
b110 t
b110 k
b110 b
b110 Y
b111111 F
b111111 L"
1$
#629612
0$
#648130
b111 Y
b111 b
b111 k
b111 t
b111 &#
b111 I"
1$
#666648
0$
#685166
b1000 I"
b1000 &#
b1000 t
b1000 k
b1000 b
b1000 Y
1$
#703684
0$
#722202
b1001 Y
b1001 b
b1001 k
b1001 t
b1001 &#
b1001 I"
1$
#740720
0$
#759238
b1010 I"
b1010 &#
b1010 t
b1010 k
b1010 b
b1010 Y
1$
#777756
0$
#796274
b1011 Y
b1011 b
b1011 k
b1011 t
b1011 &#
b1011 I"
1$
#800000
b1 :
b1 ;"
b1 @"
b1 G"
b1 u"
b0 *
b0 E"
b0 8
b0 F"
b0 ##
b1 +#
#805000
b10 :
b10 ;"
b10 @"
b10 G"
b10 u"
b1 *
b1 E"
b0 8
b0 F"
b0 ##
b10 +#
b1 *#
b1 ,#
#810000
b11 :
b11 ;"
b11 @"
b11 G"
b11 u"
b10 *
b10 E"
b0 8
b0 F"
b0 ##
b11 +#
b10 *#
b10 ,#
#814792
0$
#815000
b1010 :
b1010 ;"
b1010 @"
b1010 G"
b1010 u"
b11 *
b11 E"
b0 8
b0 F"
b0 ##
b1010 +#
b11 *#
b11 ,#
#820000
b100 :
b100 ;"
b100 @"
b100 G"
b100 u"
b0 *
b0 E"
b1 8
b1 F"
b1 ##
b100 +#
b1 )#
b0 *#
b1010 ,#
#825000
b101 :
b101 ;"
b101 @"
b101 G"
b101 u"
b1 *
b1 E"
b1 8
b1 F"
b1 ##
b101 +#
b1 *#
b100 ,#
#830000
b110 :
b110 ;"
b110 @"
b110 G"
b110 u"
b10 *
b10 E"
b1 8
b1 F"
b1 ##
b110 +#
b10 *#
b101 ,#
#833310
b1100 I"
b1100 &#
b1100 t
b1100 k
b1100 b
b1100 Y
1$
#835000
b1011 :
b1011 ;"
b1011 @"
b1011 G"
b1011 u"
b11 *
b11 E"
b1 8
b1 F"
b1 ##
b1011 +#
b11 *#
b110 ,#
#840000
b111 :
b111 ;"
b111 @"
b111 G"
b111 u"
b0 *
b0 E"
b10 8
b10 F"
b10 ##
b111 +#
b10 )#
b0 *#
b1011 ,#
#845000
b1000 :
b1000 ;"
b1000 @"
b1000 G"
b1000 u"
b1 *
b1 E"
b10 8
b10 F"
b10 ##
b1000 +#
b1 *#
b111 ,#
#850000
b1001 :
b1001 ;"
b1001 @"
b1001 G"
b1001 u"
b10 *
b10 E"
b10 8
b10 F"
b10 ##
b1001 +#
b10 *#
b1000 ,#
#851828
0$
#855000
b1100 :
b1100 ;"
b1100 @"
b1100 G"
b1100 u"
b11 *
b11 E"
b10 8
b10 F"
b10 ##
b1100 +#
b11 *#
b1001 ,#
#860000
b1110 :
b1110 ;"
b1110 @"
b1110 G"
b1110 u"
b0 *
b0 E"
b11 8
b11 F"
b11 ##
b1110 +#
b11 )#
b0 *#
b1100 ,#
#865000
b0 :
b0 ;"
b0 @"
b0 G"
b0 u"
b1 *
b1 E"
b11 8
b11 F"
b11 ##
b0 +#
b1 *#
b1110 ,#
#870000
b1111 :
b1111 ;"
b1111 @"
b1111 G"
b1111 u"
b10 *
b10 E"
b11 8
b11 F"
b11 ##
b1111 +#
b10 *#
b0 ,#
#870346
b1101 Y
b1101 b
b1101 k
b1101 t
b1101 &#
b1101 I"
1$
#875000
b1101 :
b1101 ;"
b1101 @"
b1101 G"
b1101 u"
b11 *
b11 E"
b11 8
b11 F"
b11 ##
b1101 +#
b11 *#
b1111 ,#
#880000
b1111 :
b1111 ;"
b1111 @"
b1111 G"
b1111 u"
0R
b1 7
b1 }"
b0 "#
b1 /#
05
bx *
bx E"
bx 8
bx F"
bx ##
b100 )#
b100 *#
b1101 ,#
#888864
0$
#907382
b1 :
b1 ;"
b1 @"
b1 G"
b1 u"
10
b10 "
b10 +
b0 8
b0 F"
b0 ##
b0 *
b0 E"
b0 E
b0 ~"
1;
b1101 D
b1101 !#
b0 "#
b1110 I"
b1110 &#
b1110 t
b1110 k
b1110 b
b1110 Y
15
1$
#925900
0$
#944418
b1 J
b1 M
b1 }
b10 ""
b110 !"
b1000000 ~
00
b1 @
b1 y
b1 J"
b1111 Y
b1111 b
b1111 k
b1111 t
b1111 &#
b1111 I"
0;
0R
b1 >"
b1 ?
b1 <"
05
1$
#962936
0$
#981454
b10000 I"
b10000 &#
b10000 t
b10000 k
b10000 b
b10000 Y
b0 7
b0 }"
b1 0#
1$
#999972
0$
#1018490
b10001 Y
b10001 b
b10001 k
b10001 t
b10001 &#
b10001 I"
1$
#1037008
0$
#1055526
b10010 I"
b10010 &#
b10010 t
b10010 k
b10010 b
b10010 Y
0R
b1 7
b1 }"
b1 "#
b10 /#
b1 .#
1$
#1074044
0$
#1092562
b10 :
b10 ;"
b10 @"
b10 G"
b10 u"
10
b100 "
b100 +
b10011 Y
b10011 b
b10011 k
b10011 t
b10011 &#
b10011 I"
b1 *
b1 E"
b1 E
b1 ~"
1;
b1011 D
b1011 !#
b1 "#
15
1$
#1111080
0$
#1129598
b1111001 3
b1111001 (#
0)
b1 C
b1 '#
b10010 J
b10010 M
b10010 }
b10 ""
b110 !"
b10010000000 ~
00
b1100 @
b1100 y
b1100 J"
0;
b10100 I"
b10100 &#
b10100 t
b10100 k
b10100 b
b10100 Y
1?"
b1100 ?
b1100 <"
05
1$
#1148116
0$
#1166634
b10101 Y
b10101 b
b10101 k
b10101 t
b10101 &#
b10101 I"
b0 7
b0 }"
b10 0#
1$
#1185152
0$
#1203670
b10110 I"
b10110 &#
b10110 t
b10110 k
b10110 b
b10110 Y
1$
#1222188
0$
#1240706
b10111 Y
b10111 b
b10111 k
b10111 t
b10111 &#
b10111 I"
0R
b1 7
b1 }"
b10 "#
b11 /#
b10 .#
1$
#1259224
0$
#1277742
b11 :
b11 ;"
b11 @"
b11 G"
b11 u"
10
b1000 "
b1000 +
b10 *
b10 E"
b10 E
b10 ~"
1;
b111 D
b111 !#
b10 "#
b11000 I"
b11000 &#
b11000 t
b11000 k
b11000 b
b11000 Y
15
1$
#1296260
0$
#1314778
b10010 3
b10010 (#
b101 C
b101 '#
b1011001 J
b1011001 M
b1011001 }
b10 ""
b110 !"
b1011001000000 ~
00
b111011 @
b111011 y
b111011 J"
b11001 Y
b11001 b
b11001 k
b11001 t
b11001 &#
b11001 I"
0;
b1111011 ?
b1111011 <"
05
1$
#1333296
0$
#1351814
b11010 I"
b11010 &#
b11010 t
b11010 k
b11010 b
b11010 Y
b0 7
b0 }"
b11 0#
1$
#1370332
0$
#1388850
b11011 Y
b11011 b
b11011 k
b11011 t
b11011 &#
b11011 I"
1$
#1407368
0$
#1425886
b11100 I"
b11100 &#
b11100 t
b11100 k
b11100 b
b11100 Y
0R
b1 7
b1 }"
b11 "#
b1010 /#
b11 .#
1$
#1444404
0$
#1462922
b1 {"
b1010 :
b1010 ;"
b1010 @"
b1010 G"
b1010 u"
10
b1 "
b1 +
b11101 Y
b11101 b
b11101 k
b11101 t
b11101 &#
b11101 I"
b11 *
b11 E"
b11 E
b11 ~"
1;
b1110 D
b1110 !#
b11 "#
15
1$
#1481440
0$
#1499958
b1000000 3
b1000000 (#
1)
b0 C
b0 '#
00
b0 J
0;
b11110 I"
b11110 &#
b11110 t
b11110 k
b11110 b
b11110 Y
0H
1G
b1 |"
05
1$
#1518476
0$
#1536994
b11111 Y
b11111 b
b11111 k
b11111 t
b11111 &#
b11111 I"
b0 7
b0 }"
b1010 0#
1$
#1555512
0$
#1574030
b100000 I"
b100000 &#
b100000 t
b100000 k
b100000 b
b100000 Y
1$
#1592548
0$
#1611066
b100001 Y
b100001 b
b100001 k
b100001 t
b100001 &#
b100001 I"
0R
b10 7
b10 }"
b0 "#
b100 /#
b1 -#
b0 .#
1$
#1629584
0$
#1648102
b100 :
b100 ;"
b100 @"
b100 G"
b100 u"
10
b10 "
b10 +
b1 8
b1 F"
b1 ##
b0 *
b0 E"
b0 E
b0 ~"
1;
b1101 D
b1101 !#
b0 "#
b100010 I"
b100010 &#
b100010 t
b100010 k
b100010 b
b100010 Y
15
1$
#1666620
0$
#1685138
b100 J
b100 L
b100 '"
b10 *"
b100 )"
b1000000 ("
00
b100 >
b100 #"
b100 K"
b100011 Y
b100011 b
b100011 k
b100011 t
b100011 &#
b100011 I"
0;
b1 C"
b100 =
b100 A"
05
1$
#1703656
0$
#1722174
b100100 I"
b100100 &#
b100100 t
b100100 k
b100100 b
b100100 Y
b0 7
b0 }"
b100 0#
1$
#1740692
0$
#1759210
b100101 Y
b100101 b
b100101 k
b100101 t
b100101 &#
b100101 I"
1$
#1777728
0$
#1796246
b100110 I"
b100110 &#
b100110 t
b100110 k
b100110 b
b100110 Y
0R
b10 7
b10 }"
b1 "#
b101 /#
b1 .#
1$
#1814764
0$
#1833282
b101 :
b101 ;"
b101 @"
b101 G"
b101 u"
10
b100 "
b100 +
b100111 Y
b100111 b
b100111 k
b100111 t
b100111 &#
b100111 I"
b1 *
b1 E"
b1 E
b1 ~"
1;
b1011 D
b1011 !#
b1 "#
15
1$
#1851800
0$
#1870318
b1111001 3
b1111001 (#
0)
b1 C
b1 '#
b10011 J
b10011 L
b10011 '"
b10 *"
b100 )"
b100110000 ("
00
b1101 >
b1101 #"
b1101 K"
0;
b101000 I"
b101000 &#
b101000 t
b101000 k
b101000 b
b101000 Y
1D"
b101101 =
b101101 A"
05
1$
#1888836
0$
#1907354
b101001 Y
b101001 b
b101001 k
b101001 t
b101001 &#
b101001 I"
b0 7
b0 }"
b101 0#
1$
#1925872
0$
#1944390
b101010 I"
b101010 &#
b101010 t
b101010 k
b101010 b
b101010 Y
1$
#1962908
0$
#1981426
b101011 Y
b101011 b
b101011 k
b101011 t
b101011 &#
b101011 I"
0R
b10 7
b10 }"
b10 "#
b110 /#
b10 .#
1$
#1999944
0$
#2018462
b110 :
b110 ;"
b110 @"
b110 G"
b110 u"
10
b1000 "
b1000 +
b10 *
b10 E"
b10 E
b10 ~"
1;
b111 D
b111 !#
b10 "#
b101100 I"
b101100 &#
b101100 t
b101100 k
b101100 b
b101100 Y
15
1$
#2036980
0$
#2055498
b1000000 3
b1000000 (#
1)
b0 C
b0 '#
b1000 J
b1000 L
b1000 '"
b10 *"
b100 )"
b10000000 ("
00
b1000 >
b1000 #"
b1000 K"
b101101 Y
b101101 b
b101101 k
b101101 t
b101101 &#
b101101 I"
0;
b111001000 =
b111001000 A"
05
1$
#2074016
0$
#2092534
b101110 I"
b101110 &#
b101110 t
b101110 k
b101110 b
b101110 Y
b0 7
b0 }"
b110 0#
1$
#2111052
0$
#2129570
b101111 Y
b101111 b
b101111 k
b101111 t
b101111 &#
b101111 I"
1$
#2148088
0$
#2166606
b110000 I"
b110000 &#
b110000 t
b110000 k
b110000 b
b110000 Y
0R
b10 7
b10 }"
b11 "#
b1011 /#
b11 .#
1$
#2185124
0$
#2203642
11
b10 {"
b1011 :
b1011 ;"
b1011 @"
b1011 G"
b1011 u"
10
b1 "
b1 +
b110001 Y
b110001 b
b110001 k
b110001 t
b110001 &#
b110001 I"
b11 *
b11 E"
b11 E
b11 ~"
1;
b1110 D
b1110 !#
b11 "#
15
1$
#2222160
0$
#2240678
0T"
b0 J
01
00
b11001 R"
b1 S"
0;
b110010 I"
b110010 &#
b110010 t
b110010 k
b110010 b
b110010 Y
0G
b10 |"
05
1$
#2259196
0$
#2277714
0Z"
b110011 Y
b110011 b
b110011 k
b110011 t
b110011 &#
b110011 I"
b0 Y"
b11011 W"
b11 X"
b1 V"
b0 7
b0 }"
b1011 0#
1$
#2296232
0$
#2314750
0`"
b110100 I"
b110100 &#
b110100 t
b110100 k
b110100 b
b110100 Y
b0 _"
b11111 ]"
b111 ^"
b11 \"
1$
#2333268
0$
#2351786
b110101 Y
b110101 b
b110101 k
b110101 t
b110101 &#
b110101 I"
b0 e"
b100110 c"
b1110 d"
b111 b"
0R
b100 7
b100 }"
b0 "#
b111 /#
b10 -#
b0 .#
1$
#2370304
0$
#2388822
b111 :
b111 ;"
b111 @"
b111 G"
b111 u"
10
b10 "
b10 +
b10 8
b10 F"
b10 ##
b0 *
b0 E"
b0 E
b0 ~"
1;
b1101 D
b1101 !#
b0 "#
b110110 I"
b110110 &#
b110110 t
b110110 k
b110110 b
b110110 Y
b1 k"
b100101 i"
b1101 j"
b110 h"
15
1$
#2407340
0$
#2425858
00
b110111 Y
b110111 b
b110111 k
b110111 t
b110111 &#
b110111 I"
0;
b11 q"
b100011 o"
b1011 p"
b101 n"
05
1$
#2444376
0$
#2462894
b11 {"
b111000 I"
b111000 &#
b111000 t
b111000 k
b111000 b
b111000 Y
1<
b111 F
b111 L"
b11 9
b11 M"
b0 7
b0 }"
b111 0#
1$
#2481412
0$
#2499930
b111 J
b11 K
b11 7"
b10 :"
b100 9"
b110000 8"
b111 N
b111 /"
b10 2"
b110 1"
b111000000 0"
b111001 Y
b111001 b
b111001 k
b111001 t
b111001 &#
b111001 I"
b11 |"
0<
b11 T
b11 3"
b111 Q
b111 +"
1$
#2518448
0$
#2536966
b111010 I"
b111010 &#
b111010 t
b111010 k
b111010 b
b111010 Y
0R
b100 7
b100 }"
b1 "#
b1000 /#
b1 .#
1$
#2555484
0$
#2574002
b1000 :
b1000 ;"
b1000 @"
b1000 G"
b1000 u"
10
b100 "
b100 +
b111011 Y
b111011 b
b111011 k
b111011 t
b111011 &#
b111011 I"
b1 *
b1 E"
b1 E
b1 ~"
1;
b1011 D
b1011 !#
b1 "#
15
1$
#2592520
0$
#2611038
00
0;
b111100 I"
b111100 &#
b111100 t
b111100 k
b111100 b
b111100 Y
05
1$
#2629556
0$
#2648074
b111101 Y
b111101 b
b111101 k
b111101 t
b111101 &#
b111101 I"
b0 7
b0 }"
b1000 0#
1$
#2666592
0$
#2685110
b111110 I"
b111110 &#
b111110 t
b111110 k
b111110 b
b111110 Y
1$
#2703628
0$
#2722146
b111111 Y
b111111 b
b111111 k
b111111 t
b111111 &#
b111111 I"
0R
b100 7
b100 }"
b10 "#
b1001 /#
b10 .#
1$
#2740664
0$
#2759182
b1001 :
b1001 ;"
b1001 @"
b1001 G"
b1001 u"
10
b1000 "
b1000 +
b10 *
b10 E"
b10 E
b10 ~"
1;
b111 D
b111 !#
b10 "#
b1000000 I"
b1000000 &#
b1000000 t
b1000000 k
b1000000 b
b1000000 Y
15
1$
#2777700
0$
#2796218
00
b1000001 Y
b1000001 b
b1000001 k
b1000001 t
b1000001 &#
b1000001 I"
0;
05
1$
#2814736
0$
#2833254
b1000010 I"
b1000010 &#
b1000010 t
b1000010 k
b1000010 b
b1000010 Y
b0 7
b0 }"
b1001 0#
1$
#2851772
0$
#2870290
b1000011 Y
b1000011 b
b1000011 k
b1000011 t
b1000011 &#
b1000011 I"
1$
#2888808
0$
